Cluster-free expression analysis
…
Gene program genes:

prog_id <- 2
# cao_ep$plotGeneProgramGenes(prog_id, ordering="similarity", max.genes=9, plot.na=FALSE) %>% 
#   plot_grid(plotlist=., ncol=3)
cao_ep$test.results$gene.programs$sim.scores[[prog_id]] %>% {tibble(Gene=names(.), Score=.)}

# A tibble: 177 x 2
   Gene   Score
   <chr>  <dbl>
 1 NEGR1  0.951
 2 MAGI2  0.949
 3 EFNA5  0.948
 4 FBXL17 0.946
 5 SHISA9 0.944
 6 HIVEP2 0.944
 7 GLS    0.940
 8 CADPS2 0.940
 9 CELF5  0.939
10 AKT3   0.937
# ... with 167 more rows
…
# cao_ep$test.results$gp.local$sim.scores[[1]] %>% head(16) %>% 
#   cao_ep$plotGeneExpressionComparison(scores=., plots="z.adj", plot.na=FALSE, alpha=0.5) %>% 
#   lapply(`+`, adj_list) %>% 
#   plot_grid(plotlist=., ncol=4)

cao_ep$test.results$gp.local$sim.scores[[1]] %>% {tibble(Gene=names(.), Score=.)}

# A tibble: 28 x 2
   Gene          Score
   <chr>         <dbl>
 1 PLCB1         0.914
 2 GRIA2         0.910
 3 PPP3CA        0.909
 4 KCND2         0.906
 5 ATP2B1        0.906
 6 ERC2          0.888
 7 ITPR1         0.869
 8 RP11-701H24.9 0.862
 9 NTRK2         0.859
10 EFNA5         0.838
# ... with 18 more rows

cao_ep$test.results$gp.local$sim.scores[[2]] %>% {tibble(Gene=names(.), Score=.)}

# A tibble: 54 x 2
   Gene      Score
   <chr>     <dbl>
 1 CALN1     0.847
 2 LINC00486 0.845
 3 MAPT      0.844
 4 FAM153B   0.834
 5 PDE4DIP   0.832
 6 SSH2      0.830
 7 LARGE     0.820
 8 ADGRL2    0.818
 9 CELF4     0.817
10 CADM1     0.817
# ... with 44 more rows
…
